<?xml version="1.0" encoding="UTF-8"?>
<svg width="102px" height="60px" viewBox="0 0 102 60" version="1.1" xmlns="http://www.w3.org/2000/svg" xmlns:xlink="http://www.w3.org/1999/xlink">
    <!-- Generator: Sketch 49 (51002) - http://www.bohemiancoding.com/sketch -->
    <title>svg</title>
    <desc>Created with Sketch.</desc>
    <defs></defs>
    <g id="Page-1" stroke="none" stroke-width="1" fill="none" fill-rule="evenodd">
        <g id="svg" fill="#FFFFFF" fill-rule="nonzero">
            <g id="Group" transform="translate(0.000000, 30.000000)">
                <path d="M98.1,2.1 L98.3,2.1 C98.6,2.1 98.8,2.1 98.9,2.1 C99,2.1 99,2.2 99.1,2.2 C99.1,2.3 99.2,2.3 99.2,2.4 C99.2,2.5 99.2,2.6 99.1,2.6 C99.1,2.7 99,2.7 98.9,2.7 C98.8,2.7 98.6,2.7 98.3,2.7 L98.1,2.7 L98.1,2.1 Z M98.1,4.4 L98.1,3.3 L98.2,3.3 C98.4,3.3 98.5,3.3 98.6,3.4 C98.7,3.5 98.8,3.7 99,4 L99.2,4.5 L99.9,4.5 L99.6,3.9 C99.5,3.7 99.4,3.6 99.4,3.6 C99.3,3.5 99.3,3.4 99.2,3.4 C99.2,3.4 99.1,3.3 99,3.3 C99.2,3.3 99.4,3.2 99.6,3 C99.7,2.9 99.8,2.7 99.8,2.5 C99.8,2.4 99.8,2.2 99.7,2.1 C99.6,2 99.5,1.9 99.4,1.8 C99.3,1.7 99.1,1.7 99,1.7 C98.9,1.7 98.6,1.7 98.2,1.7 L97.6,1.7 L97.6,4.3 L98.1,4.3 L98.1,4.4 Z M99.7,1.1 C100,1.3 100.3,1.6 100.5,1.9 C100.7,2.2 100.8,2.6 100.8,2.9 C100.8,3.2 100.7,3.6 100.5,3.9 C100.3,4.2 100,4.5 99.7,4.7 C99.4,4.9 99,5 98.7,5 C98.4,5 98,4.9 97.7,4.7 C97.4,4.5 97.1,4.2 96.9,3.9 C96.7,3.6 96.6,3.2 96.6,2.9 C96.6,2.6 96.7,2.2 96.9,1.9 C97.1,1.6 97.4,1.3 97.7,1.1 C98,0.9 98.4,0.8 98.7,0.8 C99.1,1 99.5,1.1 99.7,1.1 Z M97.5,0.8 C97.1,1 96.7,1.4 96.6,1.7 C96.4,2.1 96.2,2.5 96.2,2.9 C96.2,3.4 96.3,3.7 96.6,4.1 C96.8,4.5 97.2,4.9 97.5,5 C97.9,5.2 98.3,5.4 98.7,5.4 C99.2,5.4 99.5,5.3 99.9,5 C100.3,4.8 100.7,4.4 100.8,4.1 C100.9,3.8 101.2,3.3 101.2,2.9 C101.2,2.4 101.1,2.1 100.8,1.7 C100.6,1.3 100.2,0.9 99.9,0.8 C99.6,0.7 99.1,0.5 98.7,0.5 C98.3,0.4 97.9,0.6 97.5,0.8 Z" id="Shape"></path>
                <path d="M69.5,28.4 L67.2,18 C66.7,18.8 66.3,19.5 65.9,20.3 C65.5,21.1 65.3,21.7 65.1,22.4 C64.9,23.1 64.8,23.8 64.8,24.6 C64.8,25.1 64.8,25.6 64.9,26.5 C65,27.3 65.1,27.7 65.1,27.9 L65.1,28.9 C65.1,29.1 65,29.3 64.8,29.4 C64.7,29.5 64.5,29.5 64.3,29.5 C64.1,29.5 63.9,29.5 63.5,29.4 C63.4,29.4 63.2,29.4 62.9,29.4 C62.6,29.4 62.4,29.4 62.2,29.4 C62,29.4 61.8,29.4 61.7,29.4 C61.4,29.4 61.2,29.3 61.1,29.1 C61.2,28.9 61.1,28.5 61.1,27.9 C61.1,26.9 61.2,26.1 61.5,25.4 C61.8,24.6 62.1,23.9 62.5,23.2 C62.9,22.5 63.5,21.7 64.3,20.7 C65.1,19.7 65.6,18.8 65.9,18.2 C66.3,17.6 66.4,17 66.4,16.4 C66.4,15.8 65.2,15.8 64.9,15.9 L64.9,15 L71,15 L71,15.8 L69.9,15.8 L72.4,27.8 L74.7,15.8 L73.8,15.8 L73.8,15 L79.3,15 L79.3,15.8 L78,15.8 L80.7,28.4 L82.1,28.4 L82.1,29.2 L76.6,29.2 L76.6,28.4 L77.5,28.4 L75.2,17.6 L73.2,28.4 L74.2,28.4 L74.2,29.2 L68.3,29.2 L68.3,28.4 L69.5,28.4 Z" id="Shape"></path>
                <path d="M8.7,27.7 L8.7,3.7 L7.4,3.7 L6.7,3.7 C6.1,3.7 5.7,3.8 5.4,4.1 C5,4.3 4.7,4.9 4.5,5.6 C4.2,6.4 3.8,7.7 3.6,9.4 C3.4,10.2 3.3,10.7 3.2,11 C3.1,11.3 2.9,11.4 2.6,11.4 C2.2,11.4 2,11.2 1.9,10.9 C1.8,10.6 1.7,10.1 1.7,9.6 C1.7,8.6 1.5,7.4 1.1,6.2 C1,5.9 0.8,5.4 0.6,4.6 C0.3,3.8 0.2,3.3 0.2,3 C0.2,2.6 0.3,2.2 0.6,2 C0.8,1.7 1.2,1.5 1.6,1.5 C1.7,1.5 2,1.6 2.4,1.7 C2.8,1.8 3.2,1.9 3.7,2 C4.4,2 5,2 5.8,2 C6,2 6.2,2 6.4,2 C6.6,2 6.8,2 6.9,2 L15.9,2 C16,2 16.2,2 16.5,2 C16.7,2 16.9,2 17.1,2 C17.9,2 18.5,2 19,1.9 C19.5,1.8 19.9,1.7 20.3,1.6 C20.7,1.5 21,1.4 21.1,1.4 C21.6,1.4 21.9,1.6 22,1.9 C22.2,2.2 22.4,2.6 22.4,2.9 C22.4,3.2 22.3,3.7 22,4.4 C21.7,5.2 21.5,5.6 21.4,6 C21,7.2 20.8,8.4 20.8,9.4 C20.8,10.6 20.5,11.2 20,11.2 C19.7,11.2 19.6,11.1 19.4,10.9 C19.3,10.7 19.2,10.4 19.1,10.1 C19,9.8 18.9,9.1 18.6,7.9 C18.3,6.6 18,5.5 17.7,5 C17.4,4.3 17,4 16.6,3.8 C16.2,3.6 15.7,3.5 14.9,3.5 L13.6,3.5 L13.6,27.5 L16.1,27.5 L16.1,29.1 L6.3,29.1 L6.3,27.5 L8.7,27.7 Z" id="Shape"></path>
                <path d="M50.1,19.8 C50.1,19 50.2,18.4 50.4,17.6 C50.6,16.9 50.9,16.4 51.3,15.9 C51.8,15.4 52.3,15.2 53,15.2 C53.8,15.2 54.5,15.5 54.9,16 C55.7,16.8 56.2,18.8 55.9,20.7 L50,20.7 C50.2,20.5 50.1,20.2 50.1,19.8 Z M54.7,24.7 L54.7,25.5 C56.5,25.5 55.5,26.7 54.6,27.7 C54,28.4 53.1,28.6 52,28.6 C51.7,28.6 51.4,28.6 51.2,28.5 C51.3,28.1 51.4,27.7 51.4,27.5 C51.4,26.8 51.4,26.3 51.3,25.9 C51.2,25.5 51,25 50.8,24.2 C50.6,23.5 50.4,22.8 50.3,21.8 L60,21.8 L60,21 C59.8,19.3 59.4,17 57.9,15.9 C57.2,15.4 56.6,15.1 55.8,15 C55,14.8 54.4,14.7 53.7,14.7 C52.6,14.7 51.5,14.9 50.4,15.4 C49.4,15.8 48.4,16.5 47.8,17.5 C47,18.4 46.8,19.8 46.8,21.4 C46.8,22 46.9,22.4 47,22.8 C47.1,23.2 47.3,23.6 47.7,24.1 C48,24.6 48.5,25.2 49.1,26 C49.5,26.5 49.9,26.9 50,27.3 C50.2,27.7 50.3,28.1 50.3,28.6 C50.3,28.7 50.3,28.9 50.3,29.2 C50.8,29.3 51.2,29.4 51.9,29.5 C52.6,29.6 53.1,29.6 53.7,29.6 C54.5,29.6 55.3,29.4 56.1,29.1 C56.9,28.7 57.5,28.3 58.2,27.7 C59.1,26.9 59.2,25.7 60.5,25.7 L60.5,24.9 L54.7,24.7 Z" id="Shape"></path>
                <path d="M40.9,21.5 C40.6,21.9 40.3,22.1 40,22.1 C39.9,22.1 39.8,22.1 39.6,22 C39.4,21.9 39.3,21.8 39.2,21.7 L37.9,23.4 L37.9,19.9 L37.9,19.4 C37.9,18.6 37.9,18 38,17.4 C38.1,16.9 38.2,16.5 38.5,16.1 C38.8,15.7 39.2,15.5 39.6,15.5 C40.3,15.5 40.7,15.8 40.9,16.3 C41.2,16.9 41.3,17.6 41.3,18.7 C41.4,19.8 41.2,21.2 40.9,21.5 Z M44.4,16.7 C44,16 43.4,15.6 42.6,15.2 C41.8,14.8 40.9,14.6 39.8,14.6 C38.7,14.6 37.7,14.9 36.8,15.4 C36,16 35.3,16.7 34.8,17.7 C34.8,18.7 34.7,19.8 34.7,20.8 L34.7,27 C34.7,28.6 33.8,28.3 33,28.3 C33,28.6 33,28.9 33,29.1 L39.7,29.1 L39.7,28.3 C39.1,28.2 38,28.6 38,26.9 C38,25.9 38,25.5 38,24.4 L39.4,22.6 C39.5,22.6 39.7,22.7 39.9,22.8 C40.3,23 40.6,23.2 40.7,23.2 C40.9,23.3 41.2,23.3 41.5,23.3 C42.2,23.3 42.7,23.1 43.3,22.7 C44.4,22.1 45,19.7 45,18.5 C45,18.1 44.8,17.4 44.4,16.7 Z" id="Shape"></path>
                <path d="M22,19.8 C22,19 22.1,18.4 22.3,17.6 C22.5,16.9 22.8,16.4 23.2,15.9 C23.7,15.4 24.2,15.2 24.9,15.2 C25.7,15.2 26.4,15.5 26.8,16 C27.6,16.8 28.1,18.8 27.8,20.7 L22,20.7 C22,20.5 22,20.2 22,19.8 Z M26.5,24.7 L26.5,25.5 C28.3,25.5 27.3,26.7 26.4,27.7 C25.8,28.4 24.9,28.6 23.8,28.6 C23.5,28.6 23.2,28.6 23,28.5 C23.1,28.1 23.2,27.7 23.2,27.5 C23.2,26.8 23.2,26.3 23.1,25.9 C23,25.5 22.8,25 22.6,24.2 C22.4,23.5 22.2,22.8 22.1,21.8 L31.7,21.8 L31.7,21 C31.5,19.3 31.1,17 29.6,15.9 C28.9,15.4 28.3,15.1 27.5,15 C26.7,14.8 26.1,14.7 25.4,14.7 C24.3,14.7 23.2,14.9 22.1,15.4 C21.1,15.8 20.1,16.5 19.5,17.5 C18.7,18.4 18.5,19.8 18.5,21.4 C18.5,22 18.6,22.4 18.7,22.8 C18.8,23.2 19,23.6 19.4,24.1 C19.7,24.6 20.2,25.2 20.8,26 C21.2,26.5 21.6,26.9 21.7,27.3 C21.8,27.7 22,28.1 22,28.6 C22,28.7 22,28.9 22,29.2 C22.5,29.3 22.9,29.4 23.6,29.5 C24.3,29.6 24.8,29.6 25.4,29.6 C26.2,29.6 27,29.4 27.8,29.1 C28.6,28.7 29.2,28.3 29.9,27.7 C30.8,26.9 30.9,25.7 32.2,25.7 L32.2,24.9 L26.5,24.7 Z" id="Shape"></path>
                <path d="M96.5,25.5 C96.5,26.4 96.3,27.1 95.9,27.3 C95.5,27.6 95.1,27.7 94.4,27.7 L92,27.7 L92,15.4 C92.8,16.4 93.9,17.2 95.1,17.8 C95.8,18.1 96.1,18.4 96.3,18.6 C96.4,18.9 96.5,19.3 96.5,19.9 C96.5,20.2 96.5,20.4 96.5,20.4 C96.5,20.5 96.5,20.6 96.5,20.9 L96.5,25.5 Z M100.5,16.9 C100.3,16.5 99.8,16.2 99.1,16.2 C98.6,16.3 98.3,16.3 98,16.3 C97.1,16.3 96,16 94.9,15.5 C93.8,14.9 92.8,14.2 92.1,13.2 L92.1,3.8 L94.4,3.8 L94.4,2.1 L82.4,2.1 C82,2.1 81.5,1.9 80.9,1.7 C80.8,1.7 80.4,1.5 80.1,1.5 C79.8,1.5 79.4,1.6 79.3,1.8 C79.1,1.9 78.7,2.4 78.7,3 C78.7,3.9 79.5,5.5 79.5,5.8 C79.8,6.9 80,7.1 80.1,8.7 C80.2,9.6 80.2,10.3 80.3,10.7 C80.4,11.1 80.7,11.3 81.1,11.3 C81.4,11.3 81.6,11.2 81.7,11 C81.8,10.7 82,10.3 82.1,9.7 C82.4,8.2 82.7,7.2 82.9,6 C83.6,3.6 84.5,3.6 85.5,3.6 L87.3,3.6 L87.3,27.5 L84.8,27.5 L84.8,29.1 L99.2,29.1 C99.6,29.1 99.9,29 100.1,28.9 C100.3,28.8 100.5,28.5 100.7,28.1 C100.8,27.7 100.9,27.1 100.9,26.3 L100.9,18.5 C100.8,18 100.7,17.3 100.5,16.9 Z" id="Shape"></path>
            </g>
            <g id="Group" transform="translate(25.000000, 0.000000)">
                <path d="M7.7,41.3 C7.7,40 8.3,38.8 9,38 C9.8,37.2 11,36.7 12.3,36.7 C13.6,36.7 14.8,37.3 15.6,38 C16.4,38.8 16.9,40 16.9,41.3 L15.3,41.3 C15.3,40.5 14.9,39.7 14.5,39.1 C13.9,38.5 13.2,38.3 12.3,38.3 C11.5,38.3 10.7,38.7 10.1,39.1 C9.5,39.7 9.3,40.4 9.3,41.3 L7.7,41.3 Z" id="Shape"></path>
                <path d="M33.8,41.3 C33.8,40 34.4,38.8 35.1,38 C35.9,37.2 37.1,36.7 38.4,36.7 C39.7,36.7 40.9,37.3 41.7,38 C42.5,38.8 43,40 43,41.3 L41.4,41.3 C41.4,40.5 41,39.7 40.6,39.1 C40,38.5 39.3,38.3 38.4,38.3 C37.6,38.3 36.8,38.7 36.2,39.1 C35.6,39.7 35.4,40.4 35.4,41.3 L33.8,41.3 Z" id="Shape"></path>
                <path d="M20.8,41.3 C20.8,40 21.4,38.8 22.1,38 C22.9,37.2 24.1,36.7 25.4,36.7 C26.7,36.7 27.9,37.3 28.7,38 C29.5,38.8 30,40 30,41.3 L28.4,41.3 C28.4,40.5 28,39.7 27.6,39.1 C27,38.5 26.3,38.3 25.4,38.3 C24.6,38.3 23.8,38.7 23.2,39.1 C22.6,39.7 22.4,40.4 22.4,41.3 L20.8,41.3 Z" id="Shape"></path>
                <polygon id="Shape" points="27.5 26.4 26.6 27.9 29.1 28.4 26.6 29 27.2 30.3 25.9 29.6 25.4 32.3 24.9 29.5 23.4 30.4 24.3 29 21.8 28.4 24.3 27.8 23.7 26.5 25 27.3 25.4 24.5 26 27.4"></polygon>
                <path d="M49.1,34.3 L34.4,34.3 C34.9,33.8 35.4,33.4 35.8,32.9 L49.1,32.9 L49.1,34.3 Z M33.4,34.3 L31.9,34.3 C31.9,34.3 32.1,34.1 32.2,34 C35.9,29.7 34,26.4 31.4,24 C30.5,23.2 29.4,22.4 28.5,21.7 C27.3,20.8 26.2,20.1 26.1,19.6 L25.6,17.6 L25.1,19.6 C25,20.1 24,20.8 22.7,21.7 C21.8,22.4 20.7,23.1 19.8,24 C17.1,26.5 15.3,29.7 19,34 C19.1,34.1 19.3,34.3 19.3,34.3 L17.8,34.3 C17.8,34.3 17.6,34.1 17.5,34 C13.8,31.1 14,28.6 15.7,26.4 C16.7,25 18.4,23.6 20.1,22.2 C22.2,20.5 24.6,18.8 25.8,16.9 C26.9,18.8 29.4,20.5 31.5,22.2 C33.2,23.6 34.8,24.9 35.9,26.4 C37.6,28.7 37.8,31 34.1,34 C33.6,34.1 33.4,34.3 33.4,34.3 Z M1.7,34.3 L1.7,32.9 L15,32.9 C15.5,33.4 15.9,33.9 16.4,34.3 L1.7,34.3 Z M9.4,22.3 L10.3,22.3 L10.3,24.9 L9.4,24.9 L9.4,22.3 Z M11.3,22.3 L12.2,22.3 L12.2,24.9 L11.3,24.9 L11.3,22.3 Z M13.2,22.3 L14.1,22.3 L14.1,24.9 L13.2,24.9 L13.2,22.3 Z M15.1,22.3 L16,22.3 L16,24.2 L15.2,25 L15,25 L15.1,22.3 Z M16.9,22.3 L17.8,22.3 L17.8,22.4 L16.9,23.2 L16.9,22.3 Z M33.9,22.3 L33.9,23.2 L33,22.4 L33,22.3 L33.9,22.3 Z M17.7,14.8 L33.2,14.8 L33.2,21.1 L31,21.1 C29,19.4 26.7,17.7 25.8,15.9 L25.4,15.1 L25,15.9 C24.2,17.7 21.8,19.4 19.8,21.1 L17.6,21.1 L17.6,14.8 L17.7,14.8 Z M34.9,22.3 L35.8,22.3 L35.8,24.9 L35.5,24.9 L34.7,24.1 L34.9,22.3 Z M36.8,22.3 L37.7,22.3 L37.7,24.9 L36.8,24.9 L36.8,22.3 Z M38.7,22.3 L39.6,22.3 L39.6,24.9 L38.7,24.9 L38.7,22.3 Z M40.6,22.3 L41.5,22.3 L41.5,24.9 L40.6,24.9 L40.6,22.3 Z M42.3,24.9 L42.3,21.3 C42.9,21.2 43.2,20.6 43.2,20.1 C43.2,19.4 42.6,18.9 42,18.9 C41.3,18.9 40.8,19.5 40.8,20.1 C40.8,20.7 41.2,21.1 41.7,21.3 L41.7,21.5 L34.9,21.5 L34.9,14.5 L38.4,14.5 L31.2,11.4 L28.4,7.2 L25.5,2.9 C26.2,2.9 26.7,2.3 26.7,1.7 C26.7,1 26.1,0.5 25.5,0.5 C24.8,0.5 24.3,1.1 24.3,1.7 C24.3,2.4 24.9,2.9 25.5,2.9 L22.6,7.2 L19.8,11.4 L12.6,14.5 L16,14.5 L16,21.5 L9.2,21.5 L9.2,21.3 C9.8,21.2 10.1,20.6 10.1,20.1 C10.1,19.4 9.5,18.9 8.9,18.9 C8.3,18.9 7.7,19.5 7.7,20.1 C7.7,20.7 8.1,21.1 8.6,21.3 L8.6,24.9 L0.8,32 L0.8,35 L3,35 L3,41.2 L4.2,41.2 L4.2,35 C9.8,35 15.3,35 20.8,35 C20,34.1 18.3,32.6 17.8,30.4 C17.2,28.4 18.1,26.5 20.3,24.5 C21.2,23.7 22.2,23 23.1,22.3 L23.2,22.3 C24.3,21.5 25.1,21 25.5,20.5 C26,21 26.6,21.5 27.8,22.3 L27.9,22.3 C28.7,23 29.8,23.6 30.7,24.5 C32.9,26.5 33.7,28.4 33.2,30.4 C32.5,32.7 31,34 30.2,35 C35.8,35 41.3,35 46.8,35 L46.8,41.2 L48,41.2 L48,35 L50.2,35 L50.2,32 L42.3,24.9 Z" id="Shape"></path>
            </g>
        </g>
    </g>
</svg>