{
	"items": [
		{
			"name": "Лидер 7",
			"area": "6×7 м, от 63.13 кв.м",
			"size": "6×7",
			"space": "63.13",
			"certificate": 50000,
            "code": "00000124258",
			"image": "Leader7"
		},
		{
			"name": "Богатырь 1",
			"area": "7×7 м, от 73.24 кв.м",
			"size": "7×7",
			"space": "73.24",
			"certificate": 50000,
            "code": "00000143309",
			"image": "Bogatyr1"
		},
		{
			"name": "Баня 6 × 6 м",
			"area": "6×6 м, от 32.40 кв.м",
			"size": "6×6",
			"space": "32.40",
			"certificate": 50000,
            "code": "00000132323",
			"image": "Banya6x6"
		},
		{
			"name": "Варяг 1",
			"area": "8×8 м, от 110.53 кв.м",
			"size": "8×8",
			"space": "110.53",
			"certificate": 50000,
            "code": "00000145858",
			"image": "Varyag1"
		},
		{
			"name": "Добрыня 3",
			"area": "8.5×10 м, от 75.51 кв.м",
			"size": "8.5×10",
			"space": "75.51",
			"certificate": 50000,
            "code": "00000145905",
			"image": "Dobrynya3"
		},
		{
			"name": "Боярин 1",
			"area": "8.5х10.5 м, от 134.74 кв.м",
			"size": "8.5х10.5",
			"space": "134.74",
			"certificate": 50000,
                        "code": "00000176823",
			"image": "Boyarin1",
			"kitchen1": [
				{
					"name": "Кухня Фортвуд Массив Ясеня Т509/120",
					"params": [
						{
							"name": "Артикул",
							"value": "MAS23"
						},
						{
							"name": "Материал фасада",
							"value": "Массив Ясеня"
						},
						{
							"name": "Стиль",
							"value": "Классика"
						},
						{
							"name": "Цвет верхних ящиков",
							"value": "Серый"
						},
						{
							"name": "Цвет нижних ящиков",
							"value": "Серый"
						},
						{
							"name": "Каркас",
							"value": "В цвет фасада"
						},
						{
							"name": "Фурнитура",
							"value": "Hettich/Blum"
						},
						{
							"name": "Столешница",
							"value": "Шпон ясеня"
						},
						{
							"name": "Цоколь",
							"value": "ЛДСП в цвет фасадов"
						},
						{
							"name": "Форм-фактор",
							"value": "Островная"
						},
						{
							"name": "Срок производства",
							"value": "От 45 до 65 дней"
						},
						{
							"name": "Бренд",
							"value": "ЗОВ"
						},
						{
							"name": "Страна",
							"value": "Беларусь"
						}
					]
				}
			],
			"kitchen2": [
				{
					"name": "Кухня Шпон Тафель 3 Макасар глянец/RAL 9016",
					"params": [
						{
							"name": "Артикул",
							"value": "SHPON03"
						},
						{
							"name": "Материал фасада",
							"value": "Шпон"
						},
						{
							"name": "Стиль",
							"value": "Модерн"
						},
						{
							"name": "Цвет верхних ящиков",
							"value": "Тафель 3 Макасар глянец/RAL 9016"
						},
						{
							"name": "Цвет нижних ящиков",
							"value": "Тафель 3 Макасар глянец/RAL 9016"
						},
						{
							"name": "Каркас",
							"value": "Шпон"
						},
						{
							"name": "Фурнитура",
							"value": "Hettich/Blum"
						},
						{
							"name": "Столешница",
							"value": "Снежный F 2696 AB"
						},
						{
							"name": "Цоколь",
							"value": "Хром"
						},
						{
							"name": "Форм-фактор",
							"value": "Г-образная"
						},
						{
							"name": "Срок производства",
							"value": "От 30 до 45 дней"
						},
						{
							"name": "Бренд",
							"value": "ЗОВ"
						},
						{
							"name": "Страна",
							"value": "Беларусь"
						}
					]
				}
			]
		},
		{
			"name": "Боярин 2",
			"area": "9x11 м, от 152.84 кв.м",
			"size": "9x11",
			"space": "152.84",
			"certificate": 50000,
                        "code": "00000176822",
			"image": "Boyarin2",
			"kitchen1": [
				{
					"name": "Кухня МДФ Марсель 4 ПП Дижон",
					"params": [
						{
							"name": "Артикул",
							"value": "MDF24"
						},
						{
							"name": "Материал фасада",
							"value": "МДФ"
						},
						{
							"name": "Стиль",
							"value": "Классика"
						},
						{
							"name": "Цвет верхних ящиков",
							"value": "Марсель 4 ПП Дижон"
						},
						{
							"name": "Цвет нижних ящиков",
							"value": "Марсель 4 ПП Дижон"
						},
						{
							"name": "Каркас",
							"value": "Белый"
						},
						{
							"name": "Фурнитура",
							"value": "Hettich/Blum"
						},
						{
							"name": "Столешница",
							"value": "Постформинг"
						},
						{
							"name": "Цоколь",
							"value": "Белый глянец"
						},
						{
							"name": "Форм-фактор",
							"value": "Г-образная"
						},
						{
							"name": "Срок производства",
							"value": "От 30 до 45 дней"
						},
						{
							"name": "Бренд",
							"value": "ЗОВ"
						},
						{
							"name": "Страна",
							"value": "Беларусь"
						}
					]
				}
			],
			"kitchen2": [
				{
					"name": "Кухня Шпон Тафель 3 Макасар глянец/RAL 9016",
					"params": [
						{
							"name": "Артикул",
							"value": "EMAL13"
						},
						{
							"name": "Материал фасада",
							"value": "МДФ"
						},
						{
							"name": "Стиль",
							"value": "Классика"
						},
						{
							"name": "Цвет верхних ящиков",
							"value": "Марсель 4 ПП Дижон"
						},
						{
							"name": "Цвет нижних ящиков",
							"value": "Марсель 4 ПП Дижон"
						},
						{
							"name": "Каркас",
							"value": "Белый"
						},
						{
							"name": "Фурнитура",
							"value": "Hettich/Blum"
						},
						{
							"name": "Столешница",
							"value": "Постформинг"
						},
						{
							"name": "Цоколь",
							"value": "Белый глянец"
						},
						{
							"name": "Форм-фактор",
							"value": "Г-образная"
						},
						{
							"name": "Срок производства",
							"value": "От 30 до 45 дней"
						},
						{
							"name": "Бренд",
							"value": "ЗОВ"
						},
						{
							"name": "Страна",
							"value": "Беларусь"
						}
					]
				}
			]
		},
		{
			"name": "Боярин 3",
			"area": "9х12.5 м, от 177.71 кв.м",
			"size": "9х12.5",
			"space": "177.71",
			"certificate": 50000,
                        "code": "00000176821",
			"image": "Boyarin3",
			"kitchen1": [
				{
					"name": "Кухня МДФ Марсель 4 ПП Либерон",
					"params": [
						{
							"name": "Артикул",
							"value": "MDF23"
						},
						{
							"name": "Материал фасада",
							"value": "МДФ"
						},
						{
							"name": "Стиль",
							"value": "Классика"
						},
						{
							"name": "Цвет верхних ящиков",
							"value": "Марсель 4 ПП Либерон"
						},
						{
							"name": "Цвет нижних ящиков",
							"value": "Марсель 4 ПП Либерон"
						},
						{
							"name": "Каркас",
							"value": "Белый"
						},
						{
							"name": "Фурнитура",
							"value": "Hettich/Blum"
						},
						{
							"name": "Столешница",
							"value": "Искусственный камень"
						},
						{
							"name": "Цоколь",
							"value": "Белый глянец"
						},
						{
							"name": "Форм-фактор",
							"value": "Г-образная"
						},
						{
							"name": "Срок производства",
							"value": "От 30 до 45 дней"
						},
						{
							"name": "Бренд",
							"value": "ЗОВ"
						},
						{
							"name": "Страна",
							"value": "Беларусь"
						}
					]
				}
			],
			"kitchen2": [
				{
					"name": "Кухня Краска RAL 9003/Шпон беленого дуба",
					"params": [
						{
							"name": "Артикул",
							"value": "EMAL13"
						},
						{
							"name": "Материал фасада",
							"value": "Краска"
						},
						{
							"name": "Стиль",
							"value": "Модерн"
						},
						{
							"name": "Цвет верхних ящиков",
							"value": "RAL 9003/Шпон беленого дуба"
						},
						{
							"name": "Цвет нижних ящиков",
							"value": "Шпон беленого дуба"
						},
						{
							"name": "Каркас",
							"value": "Платина"
						},
						{
							"name": "Фурнитура",
							"value": "Hettich/Blum"
						},
						{
							"name": "Столешница",
							"value": "Искусственный камень"
						},
						{
							"name": "Цоколь",
							"value": "Хром"
						},
						{
							"name": "Форм-фактор",
							"value": "Г-образная"
						},
						{
							"name": "Срок производства",
							"value": "От 30 до 45 дней"
						},
						{
							"name": "Бренд",
							"value": "ЗОВ"
						},
						{
							"name": "Страна",
							"value": "Беларусь"
						}
					]
				}
			]
		},
		{
			"name": "Боярин 4",
			"area": "9х12.5 м, от 177.71 кв.м",
			"size": "9х12.5",
			"space": "177.71",
			"certificate": 50000,
                        "code": "00000176811",
			"image": "Boyarin4",
			"kitchen1": [
				{
					"name": "Кухня Фортвуд Массив Ясеня Т509/120",
					"params": [
						{
							"name": "Артикул",
							"value": "MAS23"
						},
						{
							"name": "Материал фасада",
							"value": "Массив Ясеня"
						},
						{
							"name": "Стиль",
							"value": "Классика"
						},
						{
							"name": "Цвет верхних ящиков",
							"value": "Серый"
						},
						{
							"name": "Цвет нижних ящиков",
							"value": "Серый"
						},
						{
							"name": "Каркас",
							"value": "В цвет фасада"
						},
						{
							"name": "Фурнитура",
							"value": "Hettich/Blum"
						},
						{
							"name": "Столешница",
							"value": "Шпон ясеня"
						},
						{
							"name": "Цоколь",
							"value": "ЛДСП в цвет фасадов"
						},
						{
							"name": "Форм-фактор",
							"value": "Островная"
						},
						{
							"name": "Срок производства",
							"value": "От 45 до 60 дней"
						},
						{
							"name": "Бренд",
							"value": "ЗОВ"
						},
						{
							"name": "Страна",
							"value": "Беларусь"
						}
					]
				}
			],
			"kitchen2": [
				{
					"name": "Кухня Краска RAL 9003/Шпон беленого дуба",
					"params": [
						{
							"name": "Артикул",
							"value": "EMAL13"
						},
						{
							"name": "Материал фасада",
							"value": "Краска"
						},
						{
							"name": "Стиль",
							"value": "Модерн"
						},
						{
							"name": "Цвет верхних ящиков",
							"value": "RAL 9003/Шпон беленого дуба"
						},
						{
							"name": "Цвет нижних ящиков",
							"value": "Шпон беленого дуба"
						},
						{
							"name": "Каркас",
							"value": "Платина"
						},
						{
							"name": "Фурнитура",
							"value": "Hettich/Blum"
						},
						{
							"name": "Столешница",
							"value": "Искусственный камень"
						},
						{
							"name": "Цоколь",
							"value": "Хром"
						},
						{
							"name": "Форм-фактор",
							"value": "Г-образная"
						},
						{
							"name": "Срок производства",
							"value": "От 30 до 45 дней"
						},
						{
							"name": "Бренд",
							"value": "ЗОВ"
						},
						{
							"name": "Страна",
							"value": "Беларусь"
						}
					]
				}
			]
		},
		{
			"name": "Боярин 5",
			"area": "12х14 м, от 248.11 кв.м",
			"size": "12х14",
			"space": "248.11",
			"certificate": 50000,
                        "code": "00000176815",
			"image": "Boyarin5",
			"kitchen1": [
				{
					"name": "Кухня Шпон Тафель 3 Макасар глянец/RAL 9016",
					"params": [
						{
							"name": "Артикул",
							"value": "SHPON03"
						},
						{
							"name": "Материал фасада",
							"value": "Шпон"
						},
						{
							"name": "Стиль",
							"value": "Модерн"
						},
						{
							"name": "Цвет верхних ящиков",
							"value": "Тафель 3 Макасар глянец/RAL 9016"
						},
						{
							"name": "Цвет нижних ящиков",
							"value": "Тафель 3 Макасар глянец/RAL 9016"
						},
						{
							"name": "Каркас",
							"value": "Шпон"
						},
						{
							"name": "Фурнитура",
							"value": "Hettich/Blum"
						},
						{
							"name": "Столешница",
							"value": "Снежный F 2696 AB"
						},
						{
							"name": "Цоколь",
							"value": "Хром"
						},
						{
							"name": "Форм-фактор",
							"value": "Г-образная"
						},
						{
							"name": "Срок производства",
							"value": "От 30 до 45 дней"
						},
						{
							"name": "Бренд",
							"value": "ЗОВ"
						},
						{
							"name": "Страна",
							"value": "Беларусь"
						}
					]
				}
			],
			"kitchen2": [
				{
					"name": "Кухня Краска RAL 9003/Шпон беленого дуба",
					"params": [
						{
							"name": "Артикул",
							"value": "EMAL13"
						},
						{
							"name": "Материал фасада",
							"value": "Краска"
						},
						{
							"name": "Стиль",
							"value": "Модерн"
						},
						{
							"name": "Цвет верхних ящиков",
							"value": "RAL 9003/Шпон беленого дуба"
						},
						{
							"name": "Цвет нижних ящиков",
							"value": "Шпон беленого дуба"
						},
						{
							"name": "Каркас",
							"value": "Платина"
						},
						{
							"name": "Фурнитура",
							"value": "Hettich/Blum"
						},
						{
							"name": "Столешница",
							"value": "Искусственный камень"
						},
						{
							"name": "Цоколь",
							"value": "Хром"
						},
						{
							"name": "Форм-фактор",
							"value": "Г-образная"
						},
						{
							"name": "Срок производства",
							"value": "От 30 до 45 дней"
						},
						{
							"name": "Бренд",
							"value": "ЗОВ"
						},
						{
							"name": "Страна",
							"value": "Беларусь"
						}
					]
				}
			]
		},
		{
			"name": "Галактика 2",
			"area": "12х15 м, от 250.13 кв.м",
			"size": "12х15",
			"space": "250.13",
			"certificate": 75000,
                        "code": "00000176855",
			"image": "Galaktika2",
			"kitchen1": [
				{
					"name": "Кухня Акрил Мокко и Бордо",
					"params": [
						{
							"name": "Артикул",
							"value": "ACR03"
						},
						{
							"name": "Материал фасада",
							"value": "Акрил"
						},
						{
							"name": "Стиль",
							"value": "Модерн"
						},
						{
							"name": "Цвет верхних ящиков",
							"value": "Мокко"
						},
						{
							"name": "Цвет нижних ящиков",
							"value": "Бордо"
						},
						{
							"name": "Каркас",
							"value": "Крем"
						},
						{
							"name": "Фурнитура",
							"value": "Hettich/Blum"
						},
						{
							"name": "Столешница",
							"value": "Искусственный камень"
						},
						{
							"name": "Цоколь",
							"value": "Клён"
						},
						{
							"name": "Форм-фактор",
							"value": "П-Образная"
						},
						{
							"name": "Срок производства",
							"value": "От 30 до 45 дней"
						},
						{
							"name": "Бренд",
							"value": "ЗОВ"
						},
						{
							"name": "Страна",
							"value": "Беларусь"
						}
					]
				}
			],
			"kitchen2": [
				{
					"name": "Тафель 3 Макасар глянец и Алюминий",
					"params": [
						{
							"name": "Артикул",
							"value": "SHPON04"
						},
						{
							"name": "Материал фасада",
							"value": "Шпон"
						},
						{
							"name": "Стиль",
							"value": "Модерн"
						},
						{
							"name": "Цвет верхних ящиков",
							"value": "Тафель 3 Макасар глянец"
						},
						{
							"name": "Цвет нижних ящиков",
							"value": "Алюминий"
						},
						{
							"name": "Каркас",
							"value": "Венге"
						},
						{
							"name": "Фурнитура",
							"value": "Hettich/Blum"
						},
						{
							"name": "Столешница",
							"value": "Искусственный камень"
						},
						{
							"name": "Цоколь",
							"value": "Хром"
						},
						{
							"name": "Форм-фактор",
							"value": "П-образная"
						},
						{
							"name": "Срок производства",
							"value": "От 30 до 45 дней"
						},
						{
							"name": "Бренд",
							"value": "ЗОВ"
						},
						{
							"name": "Страна",
							"value": "Беларусь"
						}
					]
				}
			]
		},
		{
			"name": "Галактика 4",
			"area": "13.5х17 м, от 328.34 кв.м",
			"size": "13.5х17",
			"space": "328.34",
			"certificate": 75000,
                        "code": "00000180551",
			"image": "Galaktika4",
			"kitchen1": [
				{
					"name": "Кухня Акрил Молоко и Мокко с Зебрано тёмным",
					"params": [
						{
							"name": "Артикул",
							"value": "ACR04"
						},
						{
							"name": "Материал фасада",
							"value": "Акрил"
						},
						{
							"name": "Стиль",
							"value": "Модерн"
						},
						{
							"name": "Цвет верхних ящиков",
							"value": "Молоко"
						},
						{
							"name": "Цвет нижних ящиков",
							"value": "Мокко с Зебрано тёмным"
						},
						{
							"name": "Каркас",
							"value": "Крем"
						},
						{
							"name": "Фурнитура",
							"value": "Hettich/Blum"
						},
						{
							"name": "Столешница",
							"value": "Искусственный камень"
						},
						{
							"name": "Цоколь",
							"value": "Белый глянец"
						},
						{
							"name": "Форм-фактор",
							"value": "Прямая"
						},
						{
							"name": "Срок производства",
							"value": "От 30 до 45 дней"
						},
						{
							"name": "Бренд",
							"value": "ЗОВ"
						},
						{
							"name": "Страна",
							"value": "Беларусь"
						}
					]
				}
			],
			"kitchen2": [
				{
					"name": "Кухня Шпон Тафель 3 каштан 2",
					"params": [
						{
							"name": "Артикул",
							"value": "SHPON05"
						},
						{
							"name": "Материал фасада",
							"value": "Шпон"
						},
						{
							"name": "Стиль",
							"value": "Модерн"
						},
						{
							"name": "Цвет верхних ящиков",
							"value": "Тафель 3 каштан"
						},
						{
							"name": "Цвет нижних ящиков",
							"value": "Тафель 3 каштан"
						},
						{
							"name": "Каркас",
							"value": "Платина"
						},
						{
							"name": "Фурнитура",
							"value": "Hettich/Blum"
						},
						{
							"name": "Столешница",
							"value": "Искусственный камень"
						},
						{
							"name": "Цоколь",
							"value": "Хром"
						},
						{
							"name": "Форм-фактор",
							"value": "Г-образная"
						},
						{
							"name": "Срок производства",
							"value": "От 30 до 45 дней"
						},
						{
							"name": "Бренд",
							"value": "ЗОВ"
						},
						{
							"name": "Страна",
							"value": "Беларусь"
						}
					]
				}
			]
		},
		{
			"name": "Генерал",
			"area": "14x20.5 м, от 330.39 кв.м",
			"size": "14x20.5",
			"space": "330.39",
			"certificate": 75000,
                        "code": "00000176926",
			"image": "General",
			"kitchen1": [
				{
					"name": "Кухня МДФ Турин 3 ПП Молочный каркас Вишня",
					"params": [
						{
							"name": "Артикул",
							"value": "MDF22"
						},
						{
							"name": "Материал фасада",
							"value": "МДФ"
						},
						{
							"name": "Стиль",
							"value": "Классика"
						},
						{
							"name": "Цвет верхних ящиков",
							"value": "Турин 3 ПП Молочный"
						},
						{
							"name": "Цвет нижних ящиков",
							"value": "Турин 3 ПП Молочный"
						},
						{
							"name": "Каркас",
							"value": "Вишня"
						},
						{
							"name": "Фурнитура",
							"value": "Hettich/Blum"
						},
						{
							"name": "Столешница",
							"value": "Лунный металл 2338/S"
						},
						{
							"name": "Цоколь",
							"value": "Орех"
						},
						{
							"name": "Форм-фактор",
							"value": "Г-образная"
						},
						{
							"name": "Срок производства",
							"value": "От 30 до 45 дней"
						},
						{
							"name": "Бренд",
							"value": "ЗОВ"
						},
						{
							"name": "Страна",
							"value": "Беларусь"
						}
					]
				}
			],
			"kitchen2": [
				{
					"name": "Кухня Шпон Тафель 3 каштан 2",
					"params": [
						{
							"name": "Артикул",
							"value": "SHPON05"
						},
						{
							"name": "Материал фасада",
							"value": "Шпон"
						},
						{
							"name": "Стиль",
							"value": "Модерн"
						},
						{
							"name": "Цвет верхних ящиков",
							"value": "Тафель 3 каштан"
						},
						{
							"name": "Цвет нижних ящиков",
							"value": "Тафель 3 каштан"
						},
						{
							"name": "Каркас",
							"value": "Платина"
						},
						{
							"name": "Фурнитура",
							"value": "Hettich/Blum"
						},
						{
							"name": "Столешница",
							"value": "Искусственный камень"
						},
						{
							"name": "Цоколь",
							"value": "Хром"
						},
						{
							"name": "Форм-фактор",
							"value": "Г-образная"
						},
						{
							"name": "Срок производства",
							"value": "От 30 до 45 дней"
						},
						{
							"name": "Бренд",
							"value": "ЗОВ"
						},
						{
							"name": "Страна",
							"value": "Беларусь"
						}
					]
				}
			]
		},
		{
			"name": "Герцог 1",
			"area": "7.5х8.5 м; от 119.73 кв.м",
			"size": "7.5х8.5",
			"space": "119.73",
			"certificate": 50000,
                        "code": "00000176841",
			"image": "Gercog1",
			"kitchen1": [
				{
					"name": "Кухня Фортвуд Массив Ясеня Т509/120",
					"params": [
						{
							"name": "Артикул",
							"value": "MAS23"
						},
						{
							"name": "Материал фасада",
							"value": "Массив Ясеня"
						},
						{
							"name": "Стиль",
							"value": "Классика"
						},
						{
							"name": "Цвет верхних ящиков",
							"value": "Серый"
						},
						{
							"name": "Цвет нижних ящиков",
							"value": "Серый"
						},
						{
							"name": "Каркас",
							"value": "В цвет фасада"
						},
						{
							"name": "Фурнитура",
							"value": "Hettich/Blum"
						},
						{
							"name": "Столешница",
							"value": "Шпон ясеня"
						},
						{
							"name": "Цоколь",
							"value": "ЛДСП в цвет фасадов"
						},
						{
							"name": "Форм-фактор",
							"value": "Островная"
						},
						{
							"name": "Срок производства",
							"value": "От 45 до 65 дней"
						},
						{
							"name": "Бренд",
							"value": "ЗОВ"
						},
						{
							"name": "Страна",
							"value": "Беларусь"
						}
					]
				}
			],
			"kitchen2": [
				{
					"name": "Кухня Краска RAL 9003/Шпон беленого дуба",
					"params": [
						{
							"name": "Артикул",
							"value": "EMAL13"
						},
						{
							"name": "Материал фасада",
							"value": "Краска"
						},
						{
							"name": "Стиль",
							"value": "Модерн"
						},
						{
							"name": "Цвет верхних ящиков",
							"value": "RAL 9003/Шпон беленого дуба"
						},
						{
							"name": "Цвет нижних ящиков",
							"value": "Шпон беленого дуба"
						},
						{
							"name": "Каркас",
							"value": "Платина"
						},
						{
							"name": "Фурнитура",
							"value": "Hettich/Blum"
						},
						{
							"name": "Столешница",
							"value": "Искусственный камень"
						},
						{
							"name": "Цоколь",
							"value": "Хром"
						},
						{
							"name": "Форм-фактор",
							"value": "Г-образная"
						},
						{
							"name": "Срок производства",
							"value": "От 30 до 45 дней"
						},
						{
							"name": "Бренд",
							"value": "ЗОВ"
						},
						{
							"name": "Страна",
							"value": "Беларусь"
						}
					]
				}
			]
		},
		{
			"name": "Герцог 2",
			"area": "8.5х9.5 м, от 149.90 кв.м",
			"size": "8.5х9.5",
			"space": "149.90",
			"certificate": 50000,
                        "code": "00000176846",
			"image": "Gercog2",
			"kitchen1": [
				{
					"name": "Кухня Постформинг Салат матовый 0626-60",
					"params": [
						{
							"name": "Артикул",
							"value": "POST06"
						},
						{
							"name": "Материал фасада",
							"value": "Постформинг"
						},
						{
							"name": "Стиль",
							"value": "Модерн"
						},
						{
							"name": "Цвет верхних ящиков",
							"value": "Салат матовый 0626-60"
						},
						{
							"name": "Цвет нижних ящиков",
							"value": "Салат матовый 0626-60"
						},
						{
							"name": "Каркас",
							"value": "Крем"
						},
						{
							"name": "Фурнитура",
							"value": "Hettich/Blum"
						},
						{
							"name": "Столешница",
							"value": "Камешки 2168/S"
						},
						{
							"name": "Цоколь",
							"value": "Клён"
						},
						{
							"name": "Форм-фактор",
							"value": "Прямая"
						},
						{
							"name": "Срок производства",
							"value": "От 30 до 45 дней"
						},
						{
							"name": "Бренд",
							"value": "ЗОВ"
						},
						{
							"name": "Страна",
							"value": "Беларусь"
						}
					]
				}
			],
			"kitchen2": [
				{
					"name": "Кухня Краска RAL 9003/Шпон беленого дуба",
					"params": [
						{
							"name": "Артикул",
							"value": "EMAL13"
						},
						{
							"name": "Материал фасада",
							"value": "Краска"
						},
						{
							"name": "Стиль",
							"value": "Модерн"
						},
						{
							"name": "Цвет верхних ящиков",
							"value": "RAL 9003/Шпон беленого дуба"
						},
						{
							"name": "Цвет нижних ящиков",
							"value": "Шпон беленого дуба"
						},
						{
							"name": "Каркас",
							"value": "Платина"
						},
						{
							"name": "Фурнитура",
							"value": "Hettich/Blum"
						},
						{
							"name": "Столешница",
							"value": "Искусственный камень"
						},
						{
							"name": "Цоколь",
							"value": "Хром"
						},
						{
							"name": "Форм-фактор",
							"value": "Г-образная"
						},
						{
							"name": "Срок производства",
							"value": "От 30 до 45 дней"
						},
						{
							"name": "Бренд",
							"value": "ЗОВ"
						},
						{
							"name": "Страна",
							"value": "Беларусь"
						}
					]
				}
			]
		},
		{
			"name": "Герцог 3",
			"area": "9.7х11.4 м, от 202.47 кв.м",
			"size": "9.7х11.4",
			"space": "202.47",
			"certificate": 50000,
                        "code": "00000176849",
			"image": "Gercog3",
			"kitchen1": [
				{
					"name": "Кухня Акрил Орион радиус Какао",
					"params": [
						{
							"name": "Артикул",
							"value": "ACR07"
						},
						{
							"name": "Материал фасада",
							"value": "Акрил"
						},
						{
							"name": "Стиль",
							"value": "Модерн"
						},
						{
							"name": "Цвет верхних ящиков",
							"value": "Какао"
						},
						{
							"name": "Цвет нижних ящиков",
							"value": "Какао"
						},
						{
							"name": "Каркас",
							"value": "Белый"
						},
						{
							"name": "Фурнитура",
							"value": "Hettich/Blum"
						},
						{
							"name": "Столешница",
							"value": "Искусственный камень"
						},
						{
							"name": "Цоколь",
							"value": "Белый глянец"
						},
						{
							"name": "Форм-фактор",
							"value": "Островная"
						},
						{
							"name": "Срок производства",
							"value": "От 30 до 45 дней"
						},
						{
							"name": "Бренд",
							"value": "ЗОВ"
						},
						{
							"name": "Страна",
							"value": "Беларусь"
						}
					]
				}
			],
			"kitchen2": [
				{
					"name": "Кухня Фортвуд Массив Ясеня Т509/120",
					"params": [
						{
							"name": "Артикул",
							"value": "MAS23"
						},
						{
							"name": "Материал фасада",
							"value": "Массив Ясеня"
						},
						{
							"name": "Стиль",
							"value": "Классика"
						},
						{
							"name": "Цвет верхних ящиков",
							"value": "Серый"
						},
						{
							"name": "Цвет нижних ящиков",
							"value": "Серый"
						},
						{
							"name": "Каркас",
							"value": "В цвет фасада"
						},
						{
							"name": "Фурнитура",
							"value": "Hettich/Blum"
						},
						{
							"name": "Столешница",
							"value": "Шпон ясеня"
						},
						{
							"name": "Цоколь",
							"value": "ЛДСП в цвет фасадов"
						},
						{
							"name": "Форм-фактор",
							"value": "Островная"
						},
						{
							"name": "Срок производства",
							"value": "От 45 до 65 дней"
						},
						{
							"name": "Бренд",
							"value": "ЗОВ"
						},
						{
							"name": "Страна",
							"value": "Беларусь"
						}
					]
				}
			]
		},
		{
			"name": "Канцлер 4",
			"area": "10.5х12 м, от 218.73 кв.м",
			"size": "10.5х12",
			"space": "218.73",
			"certificate": 75000,
                        "code": "00000180540",
			"image": "Kancler4",
			"kitchen1": [
				{
					"name": "Кухня Акрил Мокко и Бордо",
					"params": [
						{
							"name": "Артикул",
							"value": "ACR03"
						},
						{
							"name": "Материал фасада",
							"value": "Акрил"
						},
						{
							"name": "Стиль",
							"value": "Модерн"
						},
						{
							"name": "Цвет верхних ящиков",
							"value": "Мокко"
						},
						{
							"name": "Цвет нижних ящиков",
							"value": "Бордо"
						},
						{
							"name": "Каркас",
							"value": "Крем"
						},
						{
							"name": "Фурнитура",
							"value": "Hettich/Blum"
						},
						{
							"name": "Столешница",
							"value": "Искусственный камень"
						},
						{
							"name": "Цоколь",
							"value": "Клён"
						},
						{
							"name": "Форм-фактор",
							"value": "П-Образная"
						},
						{
							"name": "Срок производства",
							"value": "От 30 до 45 дней"
						},
						{
							"name": "Бренд",
							"value": "ЗОВ"
						},
						{
							"name": "Страна",
							"value": "Беларусь"
						}
					]
				}
			],
			"kitchen2": [
				{
					"name": "Кухня Шпон Тафель 3 каштан 2",
					"params": [
						{
							"name": "Артикул",
							"value": "SHPON05"
						},
						{
							"name": "Материал фасада",
							"value": "Шпон"
						},
						{
							"name": "Стиль",
							"value": "Модерн"
						},
						{
							"name": "Цвет верхних ящиков",
							"value": "Тафель 3 каштан"
						},
						{
							"name": "Цвет нижних ящиков",
							"value": "Тафель 3 каштан"
						},
						{
							"name": "Каркас",
							"value": "Платина"
						},
						{
							"name": "Фурнитура",
							"value": "Hettich/Blum"
						},
						{
							"name": "Столешница",
							"value": "Искусственный камень"
						},
						{
							"name": "Цоколь",
							"value": "Хром"
						},
						{
							"name": "Форм-фактор",
							"value": "Г-образная"
						},
						{
							"name": "Срок производства",
							"value": "От 30 до 45 дней"
						},
						{
							"name": "Бренд",
							"value": "ЗОВ"
						},
						{
							"name": "Страна",
							"value": "Беларусь"
						}
					]
				}
			]
		},
		{
			"name": "Монарх 1",
			"area": "10x11.5 м, от 209.64 кв.м",
			"size": "10x11.5",
			"space": "209.64",
			"certificate": 75000,
                        "code": "00000176831",
			"image": "Monarh1",
			"kitchen1": [
				{
					"name": "Тафель 3 Макасар глянец и Алюминий",
					"params": [
						{
							"name": "Артикул",
							"value": "SHPON04"
						},
						{
							"name": "Материал фасада",
							"value": "Шпон"
						},
						{
							"name": "Стиль",
							"value": "Модерн"
						},
						{
							"name": "Цвет верхних ящиков",
							"value": "Тафель 3 Макасар глянец"
						},
						{
							"name": "Цвет нижних ящиков",
							"value": "Алюминий"
						},
						{
							"name": "Каркас",
							"value": "Венге"
						},
						{
							"name": "Фурнитура",
							"value": "Hettich/Blum"
						},
						{
							"name": "Столешница",
							"value": "Искусственный камень"
						},
						{
							"name": "Цоколь",
							"value": "Хром"
						},
						{
							"name": "Форм-фактор",
							"value": "П-образная"
						},
						{
							"name": "Срок производства",
							"value": "От 30 до 45 дней"
						},
						{
							"name": "Бренд",
							"value": "ЗОВ"
						},
						{
							"name": "Страна",
							"value": "Беларусь"
						}
					]
				}
			],
			"kitchen2": [
				{
					"name": "Кухня Шпон Тафель 3 каштан 2",
					"params": [
						{
							"name": "Артикул",
							"value": "SHPON05"
						},
						{
							"name": "Материал фасада",
							"value": "Шпон"
						},
						{
							"name": "Стиль",
							"value": "Модерн"
						},
						{
							"name": "Цвет верхних ящиков",
							"value": "Тафель 3 каштан"
						},
						{
							"name": "Цвет нижних ящиков",
							"value": "Тафель 3 каштан"
						},
						{
							"name": "Каркас",
							"value": "Платина"
						},
						{
							"name": "Фурнитура",
							"value": "Hettich/Blum"
						},
						{
							"name": "Столешница",
							"value": "Искусственный камень"
						},
						{
							"name": "Цоколь",
							"value": "Хром"
						},
						{
							"name": "Форм-фактор",
							"value": "Г-образная"
						},
						{
							"name": "Срок производства",
							"value": "От 30 до 45 дней"
						},
						{
							"name": "Бренд",
							"value": "ЗОВ"
						},
						{
							"name": "Страна",
							"value": "Беларусь"
						}
					]
				}
			]
		},
		{
			"name": "Монарх 2",
			"area": "10x13.5 м; от 248.08 кв.м",
			"size": "10x13.5",
			"space": "248.08",
			"certificate": 75000,
                        "code": "00000176836",
			"image": "Monarh2",
			"kitchen1": [
				{
					"name": "Кухня Акрил Мокко и Бордо",
					"params": [
						{
							"name": "Артикул",
							"value": "ACR03"
						},
						{
							"name": "Материал фасада",
							"value": "Акрил"
						},
						{
							"name": "Стиль",
							"value": "Модерн"
						},
						{
							"name": "Цвет верхних ящиков",
							"value": "Мокко"
						},
						{
							"name": "Цвет нижних ящиков",
							"value": "Бордо"
						},
						{
							"name": "Каркас",
							"value": "Крем"
						},
						{
							"name": "Фурнитура",
							"value": "Hettich/Blum"
						},
						{
							"name": "Столешница",
							"value": "Искусственный камень"
						},
						{
							"name": "Цоколь",
							"value": "Клён"
						},
						{
							"name": "Форм-фактор",
							"value": "П-Образная"
						},
						{
							"name": "Срок производства",
							"value": "От 30 до 45 дней"
						},
						{
							"name": "Бренд",
							"value": "ЗОВ"
						},
						{
							"name": "Страна",
							"value": "Беларусь"
						}
					]
				}
			],
			"kitchen2": [
				{
					"name": "Кухня Шпон Тафель 3 каштан 2",
					"params": [
						{
							"name": "Артикул",
							"value": "SHPON05"
						},
						{
							"name": "Материал фасада",
							"value": "Шпон"
						},
						{
							"name": "Стиль",
							"value": "Модерн"
						},
						{
							"name": "Цвет верхних ящиков",
							"value": "Тафель 3 каштан"
						},
						{
							"name": "Цвет нижних ящиков",
							"value": "Тафель 3 каштан"
						},
						{
							"name": "Каркас",
							"value": "Платина"
						},
						{
							"name": "Фурнитура",
							"value": "Hettich/Blum"
						},
						{
							"name": "Столешница",
							"value": "Искусственный камень"
						},
						{
							"name": "Цоколь",
							"value": "Хром"
						},
						{
							"name": "Форм-фактор",
							"value": "Г-образная"
						},
						{
							"name": "Срок производства",
							"value": "От 30 до 45 дней"
						},
						{
							"name": "Бренд",
							"value": "ЗОВ"
						},
						{
							"name": "Страна",
							"value": "Беларусь"
						}
					]
				}
			]
		},
		{
			"name": "Монарх 3",
			"area": "11.3х14.5 м, от 274.92 кв.м",
			"size": "11.3х14.5",
			"space": "274.92",
			"certificate": 75000,
                        "code": "00000176830",
			"image": "Monarh3",
			"kitchen1": [
				{
					"name": "Тафель 3 Макасар глянец и Алюминий",
					"params": [
						{
							"name": "Артикул",
							"value": "SHPON04"
						},
						{
							"name": "Материал фасада",
							"value": "Шпон"
						},
						{
							"name": "Стиль",
							"value": "Модерн"
						},
						{
							"name": "Цвет верхних ящиков",
							"value": "Тафель 3 Макасар глянец"
						},
						{
							"name": "Цвет нижних ящиков",
							"value": "Алюминий"
						},
						{
							"name": "Каркас",
							"value": "Венге"
						},
						{
							"name": "Фурнитура",
							"value": "Hettich/Blum"
						},
						{
							"name": "Столешница",
							"value": "Искусственный камень"
						},
						{
							"name": "Цоколь",
							"value": "Хром"
						},
						{
							"name": "Форм-фактор",
							"value": "П-образная"
						},
						{
							"name": "Срок производства",
							"value": "От 30 до 45 дней"
						},
						{
							"name": "Бренд",
							"value": "ЗОВ"
						},
						{
							"name": "Страна",
							"value": "Беларусь"
						}
					]
				}
			],
			"kitchen2": [
				{
					"name": "Кухня Шпон Тафель 3 каштан 2",
					"params": [
						{
							"name": "Артикул",
							"value": "SHPON05"
						},
						{
							"name": "Материал фасада",
							"value": "Шпон"
						},
						{
							"name": "Стиль",
							"value": "Модерн"
						},
						{
							"name": "Цвет верхних ящиков",
							"value": "Тафель 3 каштан"
						},
						{
							"name": "Цвет нижних ящиков",
							"value": "Тафель 3 каштан"
						},
						{
							"name": "Каркас",
							"value": "Платина"
						},
						{
							"name": "Фурнитура",
							"value": "Hettich/Blum"
						},
						{
							"name": "Столешница",
							"value": "Искусственный камень"
						},
						{
							"name": "Цоколь",
							"value": "Хром"
						},
						{
							"name": "Форм-фактор",
							"value": "Г-образная"
						},
						{
							"name": "Срок производства",
							"value": "От 30 до 45 дней"
						},
						{
							"name": "Бренд",
							"value": "ЗОВ"
						},
						{
							"name": "Страна",
							"value": "Беларусь"
						}
					]
				}
			]
		},
		{
			"name": "Песня 3",
			"area": "12х13 м, от 130.77 кв.м",
			"size": "12х13",
			"space": "130.77",
			"certificate": 50000,
                        "code": "00000180536",
			"image": "Pesnya3",
			"kitchen1": [
				{
					"name": "Кухня краска Палитра RAL",
					"params": [
						{
							"name": "Артикул",
							"value": "EMAL12"
						},
						{
							"name": "Материал фасада",
							"value": "Краска"
						},
						{
							"name": "Стиль",
							"value": "Модерн"
						},
						{
							"name": "Цвет верхних ящиков",
							"value": "Палитра RAL"
						},
						{
							"name": "Цвет нижних ящиков",
							"value": "Палитра RAL"
						},
						{
							"name": "Каркас",
							"value": "В цвет Фасадов"
						},
						{
							"name": "Фурнитура",
							"value": "Hettich/Blum"
						},
						{
							"name": "Столешница",
							"value": "Искусственный камень"
						},
						{
							"name": "Цоколь",
							"value": "ЛДСП в цвет фасадов"
						},
						{
							"name": "Форм-фактор",
							"value": "Прямая"
						},
						{
							"name": "Срок производства",
							"value": "От 30 до 45 дней"
						},
						{
							"name": "Бренд",
							"value": "ЗОВ"
						},
						{
							"name": "Страна",
							"value": "Беларусь"
						}
					]
				}
			],
			"kitchen2": [
				{
					"name": "Кухня Фортвуд Массив Ясеня Т509/120",
					"params": [
						{
							"name": "Артикул",
							"value": "MAS23"
						},
						{
							"name": "Материал фасада",
							"value": "Массив Ясеня"
						},
						{
							"name": "Стиль",
							"value": "Классика"
						},
						{
							"name": "Цвет верхних ящиков",
							"value": "Серый"
						},
						{
							"name": "Цвет нижних ящиков",
							"value": "Серый"
						},
						{
							"name": "Каркас",
							"value": "В цвет фасада"
						},
						{
							"name": "Фурнитура",
							"value": "Hettich/Blum"
						},
						{
							"name": "Столешница",
							"value": "Шпон ясеня"
						},
						{
							"name": "Цоколь",
							"value": "ЛДСП в цвет фасадов"
						},
						{
							"name": "Форм-фактор",
							"value": "Островная"
						},
						{
							"name": "Срок производства",
							"value": "От 45 до 65 дней"
						},
						{
							"name": "Бренд",
							"value": "ЗОВ"
						},
						{
							"name": "Страна",
							"value": "Беларусь"
						}
					]
				}
			]
		},
		{
			"name": "Песня 4",
			"area": "13х14 м, от 152.32 кв.м",
			"size": "13х14",
			"space": "152.32",
			"certificate": 50000,
                        "code": "00000176885",
			"image": "Pesnya4",
			"kitchen1": [
				{
					"name": "Кухня Акрил Сливки и Ежевика",
					"params": [
						{
							"name": "Артикул",
							"value": "ACR01"
						},
						{
							"name": "Материал фасада",
							"value": "Акрил"
						},
						{
							"name": "Стиль",
							"value": "Модерн"
						},
						{
							"name": "Цвет верхних ящиков",
							"value": "Сливки"
						},
						{
							"name": "Цвет нижних ящиков",
							"value": "Ежевика"
						},
						{
							"name": "Каркас",
							"value": "Белое дерево"
						},
						{
							"name": "Фурнитура",
							"value": "Hettich/Blum"
						},
						{
							"name": "Столешница",
							"value": "Туринский гранит"
						},
						{
							"name": "Цоколь",
							"value": "Белый глянец"
						},
						{
							"name": "Форм-фактор",
							"value": "Прямая"
						},
						{
							"name": "Срок производства",
							"value": "От 30 до 45 дней"
						},
						{
							"name": "Бренд",
							"value": "ЗОВ"
						},
						{
							"name": "Страна",
							"value": "Беларусь"
						}
					]
				}
			],
			"kitchen2": [
				{
					"name": "Кухня Краска RAL 9003/Шпон беленого дуба",
					"params": [
						{
							"name": "Артикул",
							"value": "EMAL13"
						},
						{
							"name": "Материал фасада",
							"value": "Краска"
						},
						{
							"name": "Стиль",
							"value": "Модерн"
						},
						{
							"name": "Цвет верхних ящиков",
							"value": "RAL 9003/Шпон беленого дуба"
						},
						{
							"name": "Цвет нижних ящиков",
							"value": "Шпон беленого дуба"
						},
						{
							"name": "Каркас",
							"value": "Платина"
						},
						{
							"name": "Фурнитура",
							"value": "Hettich/Blum"
						},
						{
							"name": "Столешница",
							"value": "Искусственный камень"
						},
						{
							"name": "Цоколь",
							"value": "Хром"
						},
						{
							"name": "Форм-фактор",
							"value": "Г-образная"
						},
						{
							"name": "Срок производства",
							"value": "От 30 до 45 дней"
						},
						{
							"name": "Бренд",
							"value": "ЗОВ"
						},
						{
							"name": "Страна",
							"value": "Беларусь"
						}
					]
				}
			]
		},
		{
			"name": "Песня 5",
			"area": "15х15.3 м, от 194.55 кв.м",
			"size": "13х14",
			"space": "194.55",
			"certificate": 50000,
                        "code": "00000180535",
			"image": "Pesnya5",
			"kitchen1": [
				{
					"name": "Кухня Фортвуд Массив Ясеня Т509/120",
					"params": [
						{
							"name": "Артикул",
							"value": "MAS23"
						},
						{
							"name": "Материал фасада",
							"value": "Массив Ясеня"
						},
						{
							"name": "Стиль",
							"value": "Классика"
						},
						{
							"name": "Цвет верхних ящиков",
							"value": "Серый"
						},
						{
							"name": "Цвет нижних ящиков",
							"value": "Серый"
						},
						{
							"name": "Каркас",
							"value": "В цвет фасада"
						},
						{
							"name": "Фурнитура",
							"value": "Hettich/Blum"
						},
						{
							"name": "Столешница",
							"value": "Шпон ясеня"
						},
						{
							"name": "Цоколь",
							"value": "ЛДСП в цвет фасадов"
						},
						{
							"name": "Форм-фактор",
							"value": "Островная"
						},
						{
							"name": "Срок производства",
							"value": "От 45 до 65 дней"
						},
						{
							"name": "Бренд",
							"value": "ЗОВ"
						},
						{
							"name": "Страна",
							"value": "Беларусь"
						}
					]
				}
			],
			"kitchen2": [
				{
					"name": "Кухня Краска RAL 9003/Шпон беленого дуба",
					"params": [
						{
							"name": "Артикул",
							"value": "EMAL13"
						},
						{
							"name": "Материал фасада",
							"value": "Краска"
						},
						{
							"name": "Стиль",
							"value": "Модерн"
						},
						{
							"name": "Цвет верхних ящиков",
							"value": "RAL 9003/Шпон беленого дуба"
						},
						{
							"name": "Цвет нижних ящиков",
							"value": "Шпон беленого дуба"
						},
						{
							"name": "Каркас",
							"value": "Платина"
						},
						{
							"name": "Фурнитура",
							"value": "Hettich/Blum"
						},
						{
							"name": "Столешница",
							"value": "Искусственный камень"
						},
						{
							"name": "Цоколь",
							"value": "Хром"
						},
						{
							"name": "Форм-фактор",
							"value": "Г-образная"
						},
						{
							"name": "Срок производства",
							"value": "От 30 до 45 дней"
						},
						{
							"name": "Бренд",
							"value": "ЗОВ"
						},
						{
							"name": "Страна",
							"value": "Беларусь"
						}
					]
				}
			]
		},
		{
			"name": "Полковник 1",
			"area": "10.75x16.5 м; от 214.55 кв.м",
			"size": "10.75x16.5",
			"space": "214.55",
			"certificate": 75000,
                        "code": "00000176865",
			"image": "Polkovnik1",
			"kitchen1": [
				{
					"name": "Тафель 3 Макасар глянец и Алюминий",
					"params": [
						{
							"name": "Артикул",
							"value": "SHPON04"
						},
						{
							"name": "Материал фасада",
							"value": "Шпон"
						},
						{
							"name": "Стиль",
							"value": "Модерн"
						},
						{
							"name": "Цвет верхних ящиков",
							"value": "Тафель 3 Макасар глянец"
						},
						{
							"name": "Цвет нижних ящиков",
							"value": "Алюминий"
						},
						{
							"name": "Каркас",
							"value": "Венге"
						},
						{
							"name": "Фурнитура",
							"value": "Hettich/Blum"
						},
						{
							"name": "Столешница",
							"value": "Искусственный камень"
						},
						{
							"name": "Цоколь",
							"value": "Хром"
						},
						{
							"name": "Форм-фактор",
							"value": "П-образная"
						},
						{
							"name": "Срок производства",
							"value": "От 30 до 45 дней"
						},
						{
							"name": "Бренд",
							"value": "ЗОВ"
						},
						{
							"name": "Страна",
							"value": "Беларусь"
						}
					]
				}
			],
			"kitchen2": [
				{
					"name": "Кухня Шпон Тафель 3 каштан 2",
					"params": [
						{
							"name": "Артикул",
							"value": "SHPON05"
						},
						{
							"name": "Материал фасада",
							"value": "Шпон"
						},
						{
							"name": "Стиль",
							"value": "Модерн"
						},
						{
							"name": "Цвет верхних ящиков",
							"value": "Тафель 3 каштан"
						},
						{
							"name": "Цвет нижних ящиков",
							"value": "Тафель 3 каштан"
						},
						{
							"name": "Каркас",
							"value": "Платина"
						},
						{
							"name": "Фурнитура",
							"value": "Hettich/Blum"
						},
						{
							"name": "Столешница",
							"value": "Искусственный камень"
						},
						{
							"name": "Цоколь",
							"value": "Хром"
						},
						{
							"name": "Форм-фактор",
							"value": "Г-образная"
						},
						{
							"name": "Срок производства",
							"value": "От 30 до 45 дней"
						},
						{
							"name": "Бренд",
							"value": "ЗОВ"
						},
						{
							"name": "Страна",
							"value": "Беларусь"
						}
					]
				}
			]
		},
		{
			"name": "Полковник 3",
			"area": "12.5x18 м; от 254.34 кв.м",
			"size": "12.5x18",
			"space": "254.34",
			"certificate": 75000,
                        "code": "00000176877",
			"image": "Polkovnik3",
			"kitchen1": [
				{
					"name": "Кухня Акрил Мокко и Бордо",
					"params": [
						{
							"name": "Артикул",
							"value": "ACR03"
						},
						{
							"name": "Материал фасада",
							"value": "Акрил"
						},
						{
							"name": "Стиль",
							"value": "Модерн"
						},
						{
							"name": "Цвет верхних ящиков",
							"value": "Мокко"
						},
						{
							"name": "Цвет нижних ящиков",
							"value": "Бордо"
						},
						{
							"name": "Каркас",
							"value": "Крем"
						},
						{
							"name": "Фурнитура",
							"value": "Hettich/Blum"
						},
						{
							"name": "Столешница",
							"value": "Искусственный камень"
						},
						{
							"name": "Цоколь",
							"value": "Клён"
						},
						{
							"name": "Форм-фактор",
							"value": "П-Образная"
						},
						{
							"name": "Срок производства",
							"value": "От 30 до 45 дней"
						},
						{
							"name": "Бренд",
							"value": "ЗОВ"
						},
						{
							"name": "Страна",
							"value": "Беларусь"
						}
					]
				}
			],
			"kitchen2": [
				{
					"name": "Кухня Шпон Тафель 3 каштан 2",
					"params": [
						{
							"name": "Артикул",
							"value": "SHPON05"
						},
						{
							"name": "Материал фасада",
							"value": "Шпон"
						},
						{
							"name": "Стиль",
							"value": "Модерн"
						},
						{
							"name": "Цвет верхних ящиков",
							"value": "Тафель 3 каштан"
						},
						{
							"name": "Цвет нижних ящиков",
							"value": "Тафель 3 каштан"
						},
						{
							"name": "Каркас",
							"value": "Платина"
						},
						{
							"name": "Фурнитура",
							"value": "Hettich/Blum"
						},
						{
							"name": "Столешница",
							"value": "Искусственный камень"
						},
						{
							"name": "Цоколь",
							"value": "Хром"
						},
						{
							"name": "Форм-фактор",
							"value": "Г-образная"
						},
						{
							"name": "Срок производства",
							"value": "От 30 до 45 дней"
						},
						{
							"name": "Бренд",
							"value": "ЗОВ"
						},
						{
							"name": "Страна",
							"value": "Беларусь"
						}
					]
				}
			]
		}
	]
}
